<?xml version="1.0" encoding="UTF-8" standalone="no"?>
<svg
   xmlns:dc="http://purl.org/dc/elements/1.1/"
   xmlns:cc="http://creativecommons.org/ns#"
   xmlns:rdf="http://www.w3.org/1999/02/22-rdf-syntax-ns#"
   xmlns:svg="http://www.w3.org/2000/svg"
   xmlns="http://www.w3.org/2000/svg"
   xmlns:sodipodi="http://sodipodi.sourceforge.net/DTD/sodipodi-0.dtd"
   xmlns:inkscape="http://www.inkscape.org/namespaces/inkscape"
   version="1.1"
   viewBox="0.0 0.0 150.0 150.0"
   fill="none"
   stroke="none"
   stroke-linecap="square"
   stroke-miterlimit="10"
   id="svg97"
   sodipodi:docname="core.svg"
   inkscape:export-filename=""
   inkscape:export-xdpi="128"
   inkscape:export-ydpi="128"
   inkscape:version="1.0.1 (3bc2e813f5, 2020-09-07)">
  <metadata
     id="metadata103">
    <rdf:RDF>
      <cc:Work
         rdf:about="">
        <dc:format>image/svg+xml</dc:format>
        <dc:type
           rdf:resource="http://purl.org/dc/dcmitype/StillImage" />
      </cc:Work>
    </rdf:RDF>
  </metadata>
  <defs
     id="defs101" />
  <sodipodi:namedview
     pagecolor="#ffffff"
     bordercolor="#666666"
     borderopacity="1"
     objecttolerance="10"
     gridtolerance="10"
     guidetolerance="10"
     inkscape:pageopacity="0"
     inkscape:pageshadow="2"
     inkscape:window-width="1536"
     inkscape:window-height="822"
     id="namedview99"
     showgrid="false"
     inkscape:zoom="4.3666667"
     inkscape:cx="85.821998"
     inkscape:cy="62.199068"
     inkscape:window-x="0"
     inkscape:window-y="0"
     inkscape:window-maximized="1"
     inkscape:current-layer="g95"
     inkscape:document-rotation="0" />
  <clipPath
     id="p.0">
    <path
       d="m0 0l150.0 0l0 150.0l-150.0 0l0 -150.0z"
       clip-rule="nonzero"
       id="path2" />
  </clipPath>
  <g
     clip-path="url(#p.0)"
     id="g95">
    <path
       fill="#000000"
       fill-opacity="0.0"
       d="m0 0l150.0 0l0 150.0l-150.0 0z"
       fill-rule="evenodd"
       id="path5" />
    <defs
       id="defs12">
      <radialGradient
         id="p.1"
         gradientUnits="userSpaceOnUse"
         gradientTransform="matrix(10.117436053820631 0.0 0.0 10.117436053820631 0.0 0.0)"
         spreadMethod="pad"
         cx="7.412140443137421"
         cy="7.43036967333814"
         fx="7.412140443137421"
         fy="7.43036967333814"
         r="10.117436408996582">
        <stop
           offset="0.0"
           stop-color="#696969"
           id="stop7" />
        <stop
           offset="1.0"
           stop-color="#1d1d1d"
           id="stop9" />
      </radialGradient>
    </defs>
    <path
       fill="url(#p.1)"
       d="m-0.005255643 5.5090957l149.80559 0.12761545l-15.435379 26.315943l-0.06376648 85.993835l15.687775 26.897003l-148.72964 -0.2606659l15.310521 -27.02462l-0.31614685 -85.28244z"
       fill-rule="evenodd"
       id="path14" />
    <path
       stroke="#000000"
       stroke-width="1.0"
       stroke-linejoin="round"
       stroke-linecap="butt"
       d="m-0.005255643 5.5090957l149.80559 0.12761545l-15.435379 26.315943l-0.06376648 85.993835l15.687775 26.897003l-148.72964 -0.2606659l15.310521 -27.02462l-0.31614685 -85.28244z"
       fill-rule="evenodd"
       id="path16"
       style="stroke:none" />
    <defs
       id="defs23">
      <radialGradient
         id="p.2"
         gradientUnits="userSpaceOnUse"
         gradientTransform="matrix(7.108417498109394 0.0 0.0 7.108417498109394 0.0 0.0)"
         spreadMethod="pad"
         cx="10.56782303272272"
         cy="10.551266914609425"
         fx="10.56782303272272"
         fy="10.551266914609425"
         r="7.108417510986328">
        <stop
           offset="0.0"
           stop-color="#ff0000"
           id="stop18" />
        <stop
           offset="1.0"
           stop-color="#f10000"
           id="stop20" />
      </radialGradient>
    </defs>
    <path
       fill="url(#p.2)"
       d="m75.1205 59.074394c16.601051 -36.267715 81.34514 0 0 46.62992c-81.345146 -46.62992 -16.601051 -82.89764 0 -46.62992z"
       fill-rule="evenodd"
       id="path25" />
    <defs
       id="defs32">
      <linearGradient
         id="p.3"
         gradientUnits="userSpaceOnUse"
         gradientTransform="matrix(4.10879465305907 0.0 0.0 4.10879465305907 0.0 0.0)"
         spreadMethod="pad"
         x1="8.073837029026429"
         y1="-7.392365422223975E-5"
         x2="8.073822057300356"
         y2="4.108720729377571">
        <stop
           offset="0.0"
           stop-color="#ffc002"
           id="stop27" />
        <stop
           offset="1.0"
           stop-color="#ffff00"
           id="stop29" />
      </linearGradient>
    </defs>
    <path
       fill="url(#p.3)"
       d="m33.173737 0l83.90551 0l0 16.88189l-83.90551 0z"
       fill-rule="evenodd"
       id="path34" />
    <path
       stroke="#000000"
       stroke-width="1.0"
       stroke-linejoin="round"
       stroke-linecap="butt"
       d="m33.173737 0l83.90551 0l0 16.88189l-83.90551 0z"
       fill-rule="evenodd"
       id="path36" />
    <path
       fill="#232323"
       d="m60.40134 17.244638l15.679516 -17.228348l13.8007965 0l-15.679512 17.228348z"
       fill-rule="evenodd"
       id="path38" />
    <path
       fill="#232323"
       d="m33.173737 17.228346l15.67952 -17.228346l13.8007965 0l-15.67952 17.228346z"
       fill-rule="evenodd"
       id="path40" />
    <path
       fill="#232323"
       d="m87.628944 17.244638l15.67952 -17.228348l13.8007965 0l-15.67952 17.228348z"
       fill-rule="evenodd"
       id="path42" />
    <defs
       id="defs49">
      <linearGradient
         id="p.4"
         gradientUnits="userSpaceOnUse"
         gradientTransform="matrix(-4.108793872903226 0.0 0.0 -4.108793872903226 0.0 0.0)"
         spreadMethod="pad"
         x1="-28.497004164920703"
         y1="-36.50713614896603"
         x2="-28.49701913664962"
         y2="-32.398342276090084">
        <stop
           offset="0.0"
           stop-color="#ffc002"
           id="stop44" />
        <stop
           offset="1.0"
           stop-color="#ffff00"
           id="stop46" />
      </linearGradient>
    </defs>
    <path
       fill="url(#p.4)"
       d="m117.08832 150.0l-83.90551 0l0 -16.881897l83.90551 0z"
       fill-rule="evenodd"
       id="path51" />
    <path
       stroke="#000000"
       stroke-width="1.0"
       stroke-linejoin="round"
       stroke-linecap="butt"
       d="m117.08832 150.0l-83.90551 0l0 -16.881897l83.90551 0z"
       fill-rule="evenodd"
       id="path53" />
    <path
       fill="#232323"
       d="m89.86072 132.75536l-15.67952 17.228348l-13.8007965 0l15.67952 -17.228348z"
       fill-rule="evenodd"
       id="path55" />
    <path
       fill="#232323"
       d="m117.08832 132.77165l-15.679512 17.228348l-13.800804 0l15.67952 -17.228348z"
       fill-rule="evenodd"
       id="path57" />
    <path
       fill="#232323"
       d="m62.633114 132.75536l-15.67952 17.228348l-13.8007965 0l15.67952 -17.228348z"
       fill-rule="evenodd"
       id="path59" />
    <defs
       id="defs66">
      <linearGradient
         id="p.5"
         gradientUnits="userSpaceOnUse"
         gradientTransform="matrix(0.0 -4.062541641230132 -4.062541641230132 0.0 0.0 0.0)"
         spreadMethod="pad"
         x1="-29.058620981874935"
         y1="-36.38690241748353"
         x2="-29.058636124057703"
         y2="-32.324360776281615">
        <stop
           offset="0.0"
           stop-color="#ffc002"
           id="stop61" />
        <stop
           offset="1.0"
           stop-color="#ffff00"
           id="stop63" />
      </linearGradient>
    </defs>
    <path
       fill="url(#p.5)"
       d="m147.823 118.05186l0 -85.732285l-16.503937 0l0 85.732285z"
       fill-rule="evenodd"
       id="path68" />
    <path
       stroke="#000000"
       stroke-width="1.0"
       stroke-linejoin="round"
       stroke-linecap="butt"
       d="m147.823 118.05186l0 -85.732285l-16.503937 0l0 85.732285z"
       fill-rule="evenodd"
       id="path70" />
    <path
       fill="#232323"
       d="m130.95667 90.226715l16.850388 -15.335541l0 -14.774693l-16.850388 15.335545z"
       fill-rule="evenodd"
       id="path72" />
    <path
       fill="#232323"
       d="m130.9726 118.05186l16.850403 -15.335541l0 -14.774696l-16.850403 15.335548z"
       fill-rule="evenodd"
       id="path74" />
    <path
       fill="#232323"
       d="m130.95667 62.401573l16.850388 -15.335541l0 -14.774693l-16.850388 15.335541z"
       fill-rule="evenodd"
       id="path76" />
    <defs
       id="defs83">
      <linearGradient
         id="p.6"
         gradientUnits="userSpaceOnUse"
         gradientTransform="matrix(0.0 4.062541976408642 4.062541976408642 0.0 0.0 0.0)"
         spreadMethod="pad"
         x1="7.906850968311736"
         y1="0.6003025984491774"
         x2="7.9068358261302185"
         y2="4.6628445748296015">
        <stop
           offset="0.0"
           stop-color="#ffc002"
           id="stop78" />
        <stop
           offset="1.0"
           stop-color="#ffff00"
           id="stop80" />
      </linearGradient>
    </defs>
    <path
       fill="url(#p.6)"
       d="m2.4390647 32.12191l0 85.732285l16.503939 0l0 -85.732285z"
       fill-rule="evenodd"
       id="path85" />
    <path
       stroke="#000000"
       stroke-width="1.0"
       stroke-linejoin="round"
       stroke-linecap="butt"
       d="m2.4390647 32.12191l0 85.732285l16.503939 0l0 -85.732285z"
       fill-rule="evenodd"
       id="path87" />
    <path
       fill="#232323"
       d="m19.305399 59.947056l-16.850393 15.335545l0 14.774689l16.850393 -15.335541z"
       fill-rule="evenodd"
       id="path89" />
    <path
       fill="#232323"
       d="m19.28946 32.12191l-16.850395 15.335545l0 14.774693l16.850395 -15.335545z"
       fill-rule="evenodd"
       id="path91" />
    <path
       fill="#232323"
       d="m19.305399 87.772194l-16.850393 15.335548l0 14.774689l16.850393 -15.335541z"
       fill-rule="evenodd"
       id="path93" />
  </g>
</svg>
