<?xml version="1.0" encoding="UTF-8" standalone="no"?>
<svg
   xmlns:dc="http://purl.org/dc/elements/1.1/"
   xmlns:cc="http://creativecommons.org/ns#"
   xmlns:rdf="http://www.w3.org/1999/02/22-rdf-syntax-ns#"
   xmlns:svg="http://www.w3.org/2000/svg"
   xmlns="http://www.w3.org/2000/svg"
   xmlns:sodipodi="http://sodipodi.sourceforge.net/DTD/sodipodi-0.dtd"
   xmlns:inkscape="http://www.inkscape.org/namespaces/inkscape"
   inkscape:export-ydpi="288.13428"
   inkscape:export-xdpi="288.13428"
   inkscape:export-filename=""
   sodipodi:docname="heading_hologram.svg"
   inkscape:version="1.0 (4035a4fb49, 2020-05-01)"
   id="svg8"
   version="1.1"
   viewBox="0 0 26.458334 33.674579"
   height="127.27399"
   width="100">
  <defs
     id="defs2">
    <mask
       id="mask853"
       maskUnits="userSpaceOnUse">
      <g
         style="display:inline;stroke-width:0.999999"
         id="g859">
        <rect
           style="fill:#ffffff;fill-opacity:1;stroke:none;stroke-width:0.528903;stop-color:#000000"
           id="rect855"
           width="42.994793"
           height="38.742561"
           x="42.144337"
           y="36.380211" />
        <circle
           r="13.229167"
           cy="56.885422"
           cx="62.366062"
           id="circle857"
           style="fill:#000000;stroke-width:0.176856;stop-color:#000000" />
      </g>
    </mask>
  </defs>
  <sodipodi:namedview
     inkscape:window-maximized="1"
     inkscape:window-y="42"
     inkscape:window-x="-8"
     inkscape:window-height="1002"
     inkscape:window-width="1920"
     inkscape:snap-global="false"
     units="px"
     fit-margin-bottom="0"
     fit-margin-right="0"
     fit-margin-left="0"
     fit-margin-top="0"
     showgrid="false"
     inkscape:document-rotation="0"
     inkscape:current-layer="layer1"
     inkscape:document-units="px"
     inkscape:cy="29.585053"
     inkscape:cx="128.15861"
     inkscape:zoom="3.959798"
     inkscape:pageshadow="2"
     inkscape:pageopacity="0.0"
     borderopacity="1.0"
     bordercolor="#666666"
     pagecolor="#ffffff"
     id="base" />
  <metadata
     id="metadata5">
    <rdf:RDF>
      <cc:Work
         rdf:about="">
        <dc:format>image/svg+xml</dc:format>
        <dc:type
           rdf:resource="http://purl.org/dc/dcmitype/StillImage" />
        <dc:title></dc:title>
      </cc:Work>
    </rdf:RDF>
  </metadata>
  <g
     transform="translate(-49.136894,-40.048134)"
     id="layer1"
     inkscape:groupmode="layer"
     inkscape:label="Layer 1">
    <g
       mask="url(#mask853)"
       id="g847">
      <circle
         style="fill:#ff6600;stroke-width:0.176856;stop-color:#000000"
         id="path833"
         cx="62.366062"
         cy="55.562504"
         r="13.229167" />
      <path
         id="rect837"
         style="fill:#ff6600;fill-opacity:1;stroke:none;stroke-width:0.0940279;stop-color:#000000"
         d="m 62.366066,40.335874 2.979745,2.551806 H 59.38632 Z"
         sodipodi:nodetypes="cccc" />
      <path
         sodipodi:nodetypes="cccc"
         d="m 62.366065,41.357416 1.998445,1.711436 h -3.99689 z"
         style="fill:#e05c00;fill-opacity:1;stroke:none;stroke-width:0.0940278;stop-color:#000000"
         id="path840" />
    </g>
    <circle
       inkscape:label="page_set_set"
       style="display:none;fill:#000000;stroke-width:0.176856;stop-color:#000000"
       id="circle835"
       cx="62.366062"
       cy="56.885422"
       r="16.837305" />
    <rect
       inkscape:label="page set"
       y="40.048134"
       x="49.136894"
       height="33.67458"
       width="26.458334"
       id="rect884"
       style="display:none;fill:#ffffff;fill-opacity:1;stroke:none;stroke-width:0.528902;stop-color:#000000" />
  </g>
</svg>
